{
    "days": [
        {
            "unique": 0,
            "hits": 0,
            "ip": []
        },
        {
            "unique": 0,
            "hits": 0,
            "ip": []
        },
        {
            "unique": 0,
            "hits": 0,
            "ip": []
        },
        {
            "unique": 0,
            "hits": 0,
            "ip": []
        },
        {
            "unique": 0,
            "hits": 0,
            "ip": []
        },
        {
            "unique": 0,
            "hits": 0,
            "ip": []
        },
        {
            "unique": 0,
            "hits": 0,
            "ip": []
        },
        {
            "unique": 0,
            "hits": 0,
            "ip": []
        },
        {
            "unique": 0,
            "hits": 0,
            "ip": []
        },
        {
            "unique": 0,
            "hits": 0,
            "ip": []
        },
        {
            "unique": 0,
            "hits": 0,
            "ip": []
        },
        {
            "unique": 0,
            "hits": 0,
            "ip": []
        },
        {
            "unique": 0,
            "hits": 0,
            "ip": []
        },
        {
            "unique": 0,
            "hits": 0,
            "ip": []
        },
        {
            "unique": 0,
            "hits": 0,
            "ip": []
        },
        {
            "unique": 0,
            "hits": 0,
            "ip": []
        },
        {
            "unique": 0,
            "hits": 0,
            "ip": []
        },
        {
            "unique": 0,
            "hits": 0,
            "ip": []
        },
        {
            "unique": 0,
            "hits": 0,
            "ip": []
        },
        {
            "unique": 0,
            "hits": 0,
            "ip": []
        },
        {
            "unique": 0,
            "hits": 0,
            "ip": []
        },
        {
            "unique": 0,
            "hits": 0,
            "ip": []
        },
        {
            "unique": 0,
            "hits": 0,
            "ip": []
        },
        {
            "unique": 0,
            "hits": 0,
            "ip": []
        },
        {
            "unique": 0,
            "hits": 0,
            "ip": []
        },
        {
            "unique": 0,
            "hits": 0,
            "ip": []
        },
        {
            "unique": 0,
            "hits": 0,
            "ip": []
        },
        {
            "unique": 0,
            "hits": 0,
            "ip": []
        },
        {
<<<<<<< HEAD
            "unique": 0,
            "hits": 0,
            "ip": []
        },
        {
=======
>>>>>>> 944b974ab88f7c80c0c00c145beb291fad51b6d5
            "unique": 0,
            "hits": 0,
            "ip": []
        },
        {
            "unique": 1,
<<<<<<< HEAD
            "hits": 155,
            "ip": [
                "::1"
            ]
        },
        {
            "unique": 1,
            "hits": 65,
=======
<<<<<<< HEAD
            "hits": 1,
=======
            "hits": 83,
>>>>>>> 944b974ab88f7c80c0c00c145beb291fad51b6d5
>>>>>>> 01bf4e2d891ab07f6804d45cc756712e14666186
            "ip": [
                "::1"
            ]
        }
    ],
    "currMonth": "10"
}